Merging Data
…
.panel[.panel-name[Select, Rename]
.tinycode[

```r
wi_pop <- wi_pop_raw %>% 
  select(county = "County Name",
         pop_2018 = "Final 1/1/2018 Estimate")

wi_pop
```

```
## # A tibble: 73 x 2
##    county   pop_2018
##    <chr>       <dbl>
##  1 Adams       20786
##  2 Ashland     16030
##  3 Barron      46336
##  4 Bayfield    15327
##  5 Brown      260616
##  6 Buffalo     13699
##  7 Burnett     15508
##  8 Calumet     52658
##  9 Chippewa    64551
## 10 Clark       34743
## # ... with 63 more rows
```
…
.panel[.panel-name[Select, Rename, Mutate]
.tinycode[

```r
wi_gov <- wi_gov_raw %>% 
  select(county = County,
         walker = "Scott Walker \n Rebecca Kleefisch",
         evers =  "Tony Evers \n Mandela  Barnes") %>% 
  mutate(evers_prop_2p = evers / (evers + walker))

wi_gov %>% print(n=3)
```

```
## # A tibble: 72 x 4
##   county  walker evers evers_prop_2p
##   <chr>    <dbl> <dbl>         <dbl>
## 1 ADAMS     5209  3892         0.428
## 2 ASHLAND   2584  4168         0.617
## 3 BARRON   10655  7623         0.417
## # ... with 69 more rows
```
…
<img src="https://raw.githubusercontent.com/gadenbuie/tidyexplain/master/images/left-join.gif" style="display: block; margin: auto;" />

---
class: middle 

# Let's merge

```r
wi_gov_pop <- left_join(wi_gov, wi_pop, by = "county")
wi_gov_pop
```

```
## # A tibble: 72 x 5
##    county   walker evers evers_prop_2p pop_2018
##    <chr>     <dbl> <dbl>         <dbl>    <dbl>
##  1 Adams      5209  3892         0.428    20786
##  2 Ashland    2584  4168         0.617    16030
##  3 Barron    10655  7623         0.417    46336
##  4 Bayfield   3458  5152         0.598    15327
##  5 Brown     61424 51724         0.457   260616
##  6 Buffalo    3463  2385         0.408    13699
##  7 Burnett    4664  2742         0.370    15508
##  8 Calumet   14313  8992         0.386    52658
##  9 Chippewa  15499 11739         0.431    64551
## 10 Clark      7469  4015         0.350    34743
## # ... with 62 more rows
```
…
