Basics of Scientific Inquiry: Units of Analysis
…
---
class: middle

# Learning Check

Here is a data frame with one observation per country and two variables (country and life expectancy)

```
## # A tibble: 142 x 2
##   country     lifeExp
##   <fct>         <dbl>
## 1 Afghanistan    43.8
## 2 Albania        76.4
## 3 Algeria        72.3
## 4 Angola         42.7
## 5 Argentina      75.3
## 6 Australia      81.2
## # ... with 136 more rows
```
…
