Data Manipulation with the Tidyverse I
…
---
class: middle

# Arranging rows of a data frame

The tidyverse function `arrange()` is used to change the order of rows of a data frame

```r
arrange(gap2007, pop)
```

```
## # A tibble: 142 x 6
##    country               continent  year lifeExp     pop gdpPercap
##    <fct>                 <fct>     <int>   <dbl>   <int>     <dbl>
##  1 Sao Tome and Principe Africa     2007    65.5  199579     1598.
##  2 Iceland               Europe     2007    81.8  301931    36181.
##  3 Djibouti              Africa     2007    54.8  496374     2082.
##  4 Equatorial Guinea     Africa     2007    51.6  551201    12154.
##  5 Montenegro            Europe     2007    74.5  684736     9254.
##  6 Bahrain               Asia       2007    75.6  708573    29796.
##  7 Comoros               Africa     2007    65.2  710960      986.
##  8 Reunion               Africa     2007    76.4  798094     7670.
##  9 Trinidad and Tobago   Americas   2007    69.8 1056608    18009.
## 10 Swaziland             Africa     2007    39.6 1133066     4513.
## # ... with 132 more rows
```

---
class: middle

## Want it to go in descending order?

```r
arrange(gap2007, desc(pop))
```

```
## # A tibble: 142 x 6
##    country       continent  year lifeExp        pop gdpPercap
##    <fct>         <fct>     <int>   <dbl>      <int>     <dbl>
##  1 China         Asia       2007    73.0 1318683096     4959.
##  2 India         Asia       2007    64.7 1110396331     2452.
##  3 United States Americas   2007    78.2  301139947    42952.
##  4 Indonesia     Asia       2007    70.6  223547000     3541.
##  5 Brazil        Americas   2007    72.4  190010647     9066.
##  6 Pakistan      Asia       2007    65.5  169270617     2606.
##  7 Bangladesh    Asia       2007    64.1  150448339     1391.
##  8 Nigeria       Africa     2007    46.9  135031164     2014.
##  9 Japan         Asia       2007    82.6  127467972    31656.
## 10 Mexico        Americas   2007    76.2  108700891    11978.
## # ... with 132 more rows
```

---
class: middle

## Selecting columns of a data frame

The tidyverse function `select()` is used to specify the .blue-bold[columns] of a data frame you would like to keep

```r
select(gap2007, country, lifeExp)
```

```
## # A tibble: 142 x 2
##    country     lifeExp
##    <fct>         <dbl>
##  1 Afghanistan    43.8
##  2 Albania        76.4
##  3 Algeria        72.3
##  4 Angola         42.7
##  5 Argentina      75.3
##  6 Australia      81.2
##  7 Austria        79.8
##  8 Bahrain        75.6
##  9 Bangladesh     64.1
## 10 Belgium        79.4
## # ... with 132 more rows
```
…
