Analyzing Panel Data
…
<!-- - It's usually the unit FE variable (e.g. country) -->

---
class: middle

## State Fixed Effects

```r
state_fe_gov <- lm(unemp_rate ~ dem_gov + state_name, data = ukcpr)
tidy(state_fe_gov)
```

```
## # A tibble: 51 x 5
##    term         estimate std.error statistic   p.value
##    <chr>           <dbl>     <dbl>     <dbl>     <dbl>
##  1 (Intercept)     7.61     0.290      26.2  1.89e-129
##  2 dem_gov         0.392    0.0882      4.45 9.26e-  6
##  3 state_nameAL   -0.580    0.408      -1.42 1.55e-  1
##  4 state_nameAR   -1.38     0.408      -3.39 7.10e-  4
##  5 state_nameAZ   -1.56     0.408      -3.84 1.28e-  4
##  6 state_nameCA   -0.564    0.408      -1.38 1.66e-  1
##  7 state_nameCO   -2.60     0.409      -6.35 2.69e- 10
##  8 state_nameCT   -2.43     0.408      -5.95 3.20e-  9
##  9 state_nameDE   -2.73     0.408      -6.68 3.03e- 11
## 10 state_nameFL   -1.72     0.408      -4.23 2.47e-  5
## # ... with 41 more rows
```
…
