Data Manipulation with the Tidyverse II
…
---
class: middle

### Using `group_by()` and `summarise()`: <br> Multiple grouping variables

```r
gapminder %>%
  group_by(year, continent) %>% 
  summarise(mean_life_exp = mean(lifeExp),
            mean_pop = mean(pop)) %>% 
  ungroup()
```

```
## # A tibble: 60 x 4
##     year continent mean_life_exp  mean_pop
##    <int> <fct>             <dbl>     <dbl>
##  1  1952 Africa             39.1  4570010.
##  2  1952 Americas           53.3 13806098.
##  3  1952 Asia               46.3 42283556.
##  4  1952 Europe             64.4 13937362.
##  5  1952 Oceania            69.3  5343003 
##  6  1957 Africa             41.3  5093033.
##  7  1957 Americas           56.0 15478157.
##  8  1957 Asia               49.3 47356988.
##  9  1957 Europe             66.7 14596345.
## 10  1957 Oceania            70.3  5970988 
## # ... with 50 more rows
```
