Sampling
…
sim_1000 <- deck %>% 
  rep_sample_n(10, replace = FALSE, reps = 1000) %>% 
  group_by(replicate) %>% 
  summarise(prop_red = mean(red))
```

--

```r
sim_1000 %>% 
  print(n=3)
```

```
## # A tibble: 1,000 x 2
##   replicate prop_red
##       <int>    <dbl>
## 1         1      0.4
## 2         2      0.5
## 3         3      0.4
## # ... with 997 more rows
```
…
